%YAML 1.1
%TAG !u! tag:unity3d.com,2011:
--- !u!1 &3197654099246386873
GameObject:
  m_ObjectHideFlags: 0
  m_CorrespondingSourceObject: {fileID: 0}
  m_PrefabInstance: {fileID: 0}
  m_PrefabAsset: {fileID: 0}
  serializedVersion: 6
  m_Component:
  - component: {fileID: 7341651178311474322}
  - component: {fileID: 5935071528451705514}
  - component: {fileID: 7719989496067828434}
  m_Layer: 0
  m_Name: mergedBlocks2.046
  m_TagString: Untagged
  m_Icon: {fileID: 0}
  m_NavMeshLayer: 0
  m_StaticEditorFlags: 0
  m_IsActive: 1
--- !u!4 &7341651178311474322
Transform:
  m_ObjectHideFlags: 0
  m_CorrespondingSourceObject: {fileID: 0}
  m_PrefabInstance: {fileID: 0}
  m_PrefabAsset: {fileID: 0}
  m_GameObject: {fileID: 3197654099246386873}
  m_LocalRotation: {x: 0.00000008146035, y: -0, z: -0, w: 1}
  m_LocalPosition: {x: 10.756358, y: 0.2621169, z: 10.774429}
  m_LocalScale: {x: 35.888138, y: 35.888138, z: 35.888138}
  m_Children:
  - {fileID: 3750677612097519000}
  m_Father: {fileID: 3750677613954051730}
  m_RootOrder: 0
  m_LocalEulerAnglesHint: {x: 0, y: 0, z: 0}
--- !u!33 &5935071528451705514
MeshFilter:
  m_ObjectHideFlags: 0
  m_CorrespondingSourceObject: {fileID: 0}
  m_PrefabInstance: {fileID: 0}
  m_PrefabAsset: {fileID: 0}
  m_GameObject: {fileID: 3197654099246386873}
  m_Mesh: {fileID: -6565208926543157891, guid: 4c009f0e5d3150149bce83db7d013535, type: 3}
--- !u!23 &7719989496067828434
MeshRenderer:
  m_ObjectHideFlags: 0
  m_CorrespondingSourceObject: {fileID: 0}
  m_PrefabInstance: {fileID: 0}
  m_PrefabAsset: {fileID: 0}
  m_GameObject: {fileID: 3197654099246386873}
  m_Enabled: 1
  m_CastShadows: 1
  m_ReceiveShadows: 1
  m_DynamicOccludee: 1
  m_MotionVectors: 1
  m_LightProbeUsage: 1
  m_ReflectionProbeUsage: 1
  m_RayTracingMode: 2
  m_RayTraceProcedural: 0
  m_RenderingLayerMask: 1
  m_RendererPriority: 0
  m_Materials:
  - {fileID: 2989517864430768965, guid: 4c009f0e5d3150149bce83db7d013535, type: 3}
  - {fileID: -8046275523984926159, guid: 4c009f0e5d3150149bce83db7d013535, type: 3}
  - {fileID: 7013655984082969926, guid: 4c009f0e5d3150149bce83db7d013535, type: 3}
  - {fileID: -951720642154281844, guid: 4c009f0e5d3150149bce83db7d013535, type: 3}
  m_StaticBatchInfo:
    firstSubMesh: 0
    subMeshCount: 0
  m_StaticBatchRoot: {fileID: 0}
  m_ProbeAnchor: {fileID: 0}
  m_LightProbeVolumeOverride: {fileID: 0}
  m_ScaleInLightmap: 1
  m_ReceiveGI: 1
  m_PreserveUVs: 0
  m_IgnoreNormalsForChartDetection: 0
  m_ImportantGI: 0
  m_StitchLightmapSeams: 1
  m_SelectedEditorRenderState: 3
  m_MinimumChartSize: 4
  m_AutoUVMaxDistance: 0.5
  m_AutoUVMaxAngle: 89
  m_LightmapParameters: {fileID: 0}
  m_SortingLayerID: 0
  m_SortingLayer: 0
  m_SortingOrder: 0
  m_AdditionalVertexStreams: {fileID: 0}
--- !u!1 &3750677612097519001
GameObject:
  m_ObjectHideFlags: 0
  m_CorrespondingSourceObject: {fileID: 0}
  m_PrefabInstance: {fileID: 0}
  m_PrefabAsset: {fileID: 0}
  serializedVersion: 6
  m_Component:
  - component: {fileID: 3750677612097519000}
  m_Layer: 0
  m_Name: FirePoint
  m_TagString: Untagged
  m_Icon: {fileID: 0}
  m_NavMeshLayer: 0
  m_StaticEditorFlags: 0
  m_IsActive: 1
--- !u!4 &3750677612097519000
Transform:
  m_ObjectHideFlags: 0
  m_CorrespondingSourceObject: {fileID: 0}
  m_PrefabInstance: {fileID: 0}
  m_PrefabAsset: {fileID: 0}
  m_GameObject: {fileID: 3750677612097519001}
  m_LocalRotation: {x: -0.00000008146035, y: -0, z: -0, w: 1}
  m_LocalPosition: {x: -0.29971904, y: 0.0672, z: -0.2006}
  m_LocalScale: {x: 0.027864361, y: 0.027864361, z: 0.027864361}
  m_Children: []
  m_Father: {fileID: 7341651178311474322}
  m_RootOrder: 0
  m_LocalEulerAnglesHint: {x: 0, y: 0, z: 0}
--- !u!1 &3750677612979609594
GameObject:
  m_ObjectHideFlags: 0
  m_CorrespondingSourceObject: {fileID: 0}
  m_PrefabInstance: {fileID: 0}
  m_PrefabAsset: {fileID: 0}
  serializedVersion: 6
  m_Component:
  - component: {fileID: 3750677612979609589}
  - component: {fileID: -1983719445885780243}
  - component: {fileID: -24581239547852417}
  m_Layer: 0
  m_Name: Z25 Terror B
  m_TagString: Untagged
  m_Icon: {fileID: 0}
  m_NavMeshLayer: 0
  m_StaticEditorFlags: 0
  m_IsActive: 1
--- !u!4 &3750677612979609589
Transform:
  m_ObjectHideFlags: 0
  m_CorrespondingSourceObject: {fileID: 0}
  m_PrefabInstance: {fileID: 0}
  m_PrefabAsset: {fileID: 0}
  m_GameObject: {fileID: 3750677612979609594}
  m_LocalRotation: {x: 0, y: 0, z: 0, w: 1}
  m_LocalPosition: {x: -0.545, y: 0.32, z: 4.644}
  m_LocalScale: {x: 0.20087245, y: 0.20087245, z: 0.20087245}
  m_Children:
  - {fileID: 3750677613954051730}
  - {fileID: 2697870256744284266}
  - {fileID: 4949006519592369119}
  m_Father: {fileID: 0}
  m_RootOrder: 0
  m_LocalEulerAnglesHint: {x: 0, y: 0, z: 0}
--- !u!114 &-1983719445885780243
MonoBehaviour:
  m_ObjectHideFlags: 0
  m_CorrespondingSourceObject: {fileID: 0}
  m_PrefabInstance: {fileID: 0}
  m_PrefabAsset: {fileID: 0}
  m_GameObject: {fileID: 3750677612979609594}
  m_Enabled: 1
  m_EditorHideFlags: 0
  m_Script: {fileID: 11500000, guid: 18284a7d607a5a5449d1f78fe2cd2a3c, type: 3}
  m_Name: 
  m_EditorClassIdentifier: 
  heroRotatePoint: {fileID: 3750677613954051730}
  heroTurnSpeed: 10
  enemyTag: Enemy
  Firepoint: {fileID: 3750677612097519000}
  UseLaser: 1
  RenderLaser: {fileID: -24581239547852417}
  LaserEffect: {fileID: 4949006519592369118}
  LaserLight: {fileID: 4671878212244912400}
  bulletPrefab: {fileID: 0}
  hero:
    Name: 
    HeroName: 0
    AttackType: 0
    Prefab: {fileID: 0}
    EvoPrefab: {fileID: 0}
    Evo2Prefab: {fileID: 0}
    ElementType: 0
    IsHero: 0
    IsBuilt: 0
    IsEvo: 0
    IsPreEvo: 0
    DamageOverTime: 0
    SlowPercent: 0.3
    BulletSpeed: 20
    AttackDamage: 0
    AttackSpeed: 0
    AttackRange: 0
    AoeRange: 0
    UpgradeCost: 100
    Level: 0
    HeroCostAmount: 0
  cookieAura: {fileID: 8339472744043434759, guid: 7ed997f155755a047b059ad0c69b4389, type: 3}
  candyAura: {fileID: 6025645551602517125, guid: 37f877d80b352834d84afe62e631d7db, type: 3}
--- !u!120 &-24581239547852417
LineRenderer:
  m_ObjectHideFlags: 0
  m_CorrespondingSourceObject: {fileID: 0}
  m_PrefabInstance: {fileID: 0}
  m_PrefabAsset: {fileID: 0}
  m_GameObject: {fileID: 3750677612979609594}
  m_Enabled: 1
  m_CastShadows: 1
  m_ReceiveShadows: 1
  m_DynamicOccludee: 1
  m_MotionVectors: 0
  m_LightProbeUsage: 0
  m_ReflectionProbeUsage: 0
  m_RayTracingMode: 0
  m_RayTraceProcedural: 0
  m_RenderingLayerMask: 1
  m_RendererPriority: 0
  m_Materials:
  - {fileID: 2100000, guid: 6e8014efb2dde20458236c515d1f1bdf, type: 2}
  m_StaticBatchInfo:
    firstSubMesh: 0
    subMeshCount: 0
  m_StaticBatchRoot: {fileID: 0}
  m_ProbeAnchor: {fileID: 0}
  m_LightProbeVolumeOverride: {fileID: 0}
  m_ScaleInLightmap: 1
  m_ReceiveGI: 1
  m_PreserveUVs: 0
  m_IgnoreNormalsForChartDetection: 0
  m_ImportantGI: 0
  m_StitchLightmapSeams: 1
  m_SelectedEditorRenderState: 3
  m_MinimumChartSize: 4
  m_AutoUVMaxDistance: 0.5
  m_AutoUVMaxAngle: 89
  m_LightmapParameters: {fileID: 0}
  m_SortingLayerID: 0
  m_SortingLayer: 0
  m_SortingOrder: 0
  m_Positions:
  - {x: 0, y: 0.5, z: 0}
  - {x: 0, y: 0.5, z: 2}
  m_Parameters:
    serializedVersion: 3
    widthMultiplier: 1
    widthCurve:
      serializedVersion: 2
      m_Curve:
      - serializedVersion: 3
        time: 0.45703125
        value: 0.05507514
        inSlope: 0
        outSlope: 0
        tangentMode: 0
        weightedMode: 0
        inWeight: 0.33333334
        outWeight: 0.33333334
      m_PreInfinity: 2
      m_PostInfinity: 2
      m_RotationOrder: 4
    colorGradient:
      serializedVersion: 2
      key0: {r: 0.9137255, g: 0.09019608, b: 0.31029773, a: 0.75686276}
      key1: {r: 1, g: 1, b: 1, a: 0.84313726}
      key2: {r: 1, g: 1, b: 1, a: 0}
      key3: {r: 0, g: 0, b: 0, a: 0}
      key4: {r: 0, g: 0, b: 0, a: 0}
      key5: {r: 0, g: 0, b: 0, a: 0}
      key6: {r: 0, g: 0, b: 0, a: 0}
      key7: {r: 0, g: 0, b: 0, a: 0}
      ctime0: 0
      ctime1: 65535
      ctime2: 65535
      ctime3: 0
      ctime4: 0
      ctime5: 0
      ctime6: 0
      ctime7: 0
      atime0: 0
      atime1: 65535
      atime2: 0
      atime3: 0
      atime4: 0
      atime5: 0
      atime6: 0
      atime7: 0
      m_Mode: 0
      m_NumColorKeys: 2
      m_NumAlphaKeys: 2
    numCornerVertices: 0
    numCapVertices: 0
    alignment: 0
    textureMode: 0
    shadowBias: 0.5
    generateLightingData: 0
  m_UseWorldSpace: 1
  m_Loop: 0
--- !u!1 &3750677613954051731
GameObject:
  m_ObjectHideFlags: 0
  m_CorrespondingSourceObject: {fileID: 0}
  m_PrefabInstance: {fileID: 0}
  m_PrefabAsset: {fileID: 0}
  serializedVersion: 6
  m_Component:
  - component: {fileID: 3750677613954051730}
  m_Layer: 0
  m_Name: Rotate
  m_TagString: Untagged
  m_Icon: {fileID: 0}
  m_NavMeshLayer: 0
  m_StaticEditorFlags: 0
  m_IsActive: 1
--- !u!4 &3750677613954051730
Transform:
  m_ObjectHideFlags: 0
  m_CorrespondingSourceObject: {fileID: 0}
  m_PrefabInstance: {fileID: 0}
  m_PrefabAsset: {fileID: 0}
  m_GameObject: {fileID: 3750677613954051731}
  m_LocalRotation: {x: 0, y: 0, z: 0, w: 1}
  m_LocalPosition: {x: 0, y: 0, z: 0}
  m_LocalScale: {x: 1, y: 1, z: 1}
  m_Children:
  - {fileID: 7341651178311474322}
  m_Father: {fileID: 3750677612979609589}
  m_RootOrder: 0
  m_LocalEulerAnglesHint: {x: 0, y: 0, z: 0}
--- !u!1 &5732976341684711843
GameObject:
  m_ObjectHideFlags: 0
  m_CorrespondingSourceObject: {fileID: 0}
  m_PrefabInstance: {fileID: 0}
  m_PrefabAsset: {fileID: 0}
  serializedVersion: 6
  m_Component:
  - component: {fileID: 2697870256744284266}
  - component: {fileID: 5905108423016862019}
  - component: {fileID: 6327330304440941991}
  m_Layer: 0
  m_Name: mergedBlocks2.085
  m_TagString: Untagged
  m_Icon: {fileID: 0}
  m_NavMeshLayer: 0
  m_StaticEditorFlags: 0
  m_IsActive: 1
--- !u!4 &2697870256744284266
Transform:
  m_ObjectHideFlags: 0
  m_CorrespondingSourceObject: {fileID: 0}
  m_PrefabInstance: {fileID: 0}
  m_PrefabAsset: {fileID: 0}
  m_GameObject: {fileID: 5732976341684711843}
  m_LocalRotation: {x: 0.00000008146035, y: -0, z: -0, w: 1}
  m_LocalPosition: {x: 10.756358, y: -0.08501935, z: 10.774429}
  m_LocalScale: {x: 35.888138, y: 35.888138, z: 35.888138}
  m_Children: []
  m_Father: {fileID: 3750677612979609589}
  m_RootOrder: 1
  m_LocalEulerAnglesHint: {x: 0, y: 0, z: 0}
--- !u!33 &5905108423016862019
MeshFilter:
  m_ObjectHideFlags: 0
  m_CorrespondingSourceObject: {fileID: 0}
  m_PrefabInstance: {fileID: 0}
  m_PrefabAsset: {fileID: 0}
  m_GameObject: {fileID: 5732976341684711843}
  m_Mesh: {fileID: -3808784625064760646, guid: 4c009f0e5d3150149bce83db7d013535, type: 3}
--- !u!23 &6327330304440941991
MeshRenderer:
  m_ObjectHideFlags: 0
  m_CorrespondingSourceObject: {fileID: 0}
  m_PrefabInstance: {fileID: 0}
  m_PrefabAsset: {fileID: 0}
  m_GameObject: {fileID: 5732976341684711843}
  m_Enabled: 1
  m_CastShadows: 1
  m_ReceiveShadows: 1
  m_DynamicOccludee: 1
  m_MotionVectors: 1
  m_LightProbeUsage: 1
  m_ReflectionProbeUsage: 1
  m_RayTracingMode: 2
  m_RayTraceProcedural: 0
  m_RenderingLayerMask: 1
  m_RendererPriority: 0
  m_Materials:
  - {fileID: 7013655984082969926, guid: 4c009f0e5d3150149bce83db7d013535, type: 3}
  - {fileID: 2989517864430768965, guid: 4c009f0e5d3150149bce83db7d013535, type: 3}
  m_StaticBatchInfo:
    firstSubMesh: 0
    subMeshCount: 0
  m_StaticBatchRoot: {fileID: 0}
  m_ProbeAnchor: {fileID: 0}
  m_LightProbeVolumeOverride: {fileID: 0}
  m_ScaleInLightmap: 1
  m_ReceiveGI: 1
  m_PreserveUVs: 0
  m_IgnoreNormalsForChartDetection: 0
  m_ImportantGI: 0
  m_StitchLightmapSeams: 1
  m_SelectedEditorRenderState: 3
  m_MinimumChartSize: 4
  m_AutoUVMaxDistance: 0.5
  m_AutoUVMaxAngle: 89
  m_LightmapParameters: {fileID: 0}
  m_SortingLayerID: 0
  m_SortingLayer: 0
  m_SortingOrder: 0
  m_AdditionalVertexStreams: {fileID: 0}
--- !u!1001 &1638625603001854365
PrefabInstance:
  m_ObjectHideFlags: 0
  serializedVersion: 2
  m_Modification:
    m_TransformParent: {fileID: 3750677612979609589}
    m_Modifications:
    - target: {fileID: 5914341734106272322, guid: 0f2f9f1d20f13e34faced1f07b5ec1cc, type: 3}
      propertyPath: m_RootOrder
      value: 2
      objectReference: {fileID: 0}
    - target: {fileID: 5914341734106272322, guid: 0f2f9f1d20f13e34faced1f07b5ec1cc, type: 3}
      propertyPath: m_LocalPosition.x
      value: -0.196
      objectReference: {fileID: 0}
    - target: {fileID: 5914341734106272322, guid: 0f2f9f1d20f13e34faced1f07b5ec1cc, type: 3}
      propertyPath: m_LocalPosition.y
      value: 1.357
      objectReference: {fileID: 0}
    - target: {fileID: 5914341734106272322, guid: 0f2f9f1d20f13e34faced1f07b5ec1cc, type: 3}
      propertyPath: m_LocalPosition.z
      value: 1.096
      objectReference: {fileID: 0}
    - target: {fileID: 5914341734106272322, guid: 0f2f9f1d20f13e34faced1f07b5ec1cc, type: 3}
      propertyPath: m_LocalRotation.w
      value: 1
      objectReference: {fileID: 0}
    - target: {fileID: 5914341734106272322, guid: 0f2f9f1d20f13e34faced1f07b5ec1cc, type: 3}
      propertyPath: m_LocalRotation.x
      value: 0
      objectReference: {fileID: 0}
    - target: {fileID: 5914341734106272322, guid: 0f2f9f1d20f13e34faced1f07b5ec1cc, type: 3}
      propertyPath: m_LocalRotation.y
      value: 0
      objectReference: {fileID: 0}
    - target: {fileID: 5914341734106272322, guid: 0f2f9f1d20f13e34faced1f07b5ec1cc, type: 3}
      propertyPath: m_LocalRotation.z
      value: 0
      objectReference: {fileID: 0}
    - target: {fileID: 5914341734106272322, guid: 0f2f9f1d20f13e34faced1f07b5ec1cc, type: 3}
      propertyPath: m_LocalEulerAnglesHint.x
      value: 0
      objectReference: {fileID: 0}
    - target: {fileID: 5914341734106272322, guid: 0f2f9f1d20f13e34faced1f07b5ec1cc, type: 3}
      propertyPath: m_LocalEulerAnglesHint.y
      value: 0
      objectReference: {fileID: 0}
    - target: {fileID: 5914341734106272322, guid: 0f2f9f1d20f13e34faced1f07b5ec1cc, type: 3}
      propertyPath: m_LocalEulerAnglesHint.z
      value: 0
      objectReference: {fileID: 0}
    - target: {fileID: 5914341734106272381, guid: 0f2f9f1d20f13e34faced1f07b5ec1cc, type: 3}
      propertyPath: m_Name
      value: Laser Effect
      objectReference: {fileID: 0}
    m_RemovedComponents: []
  m_SourcePrefab: {fileID: 100100000, guid: 0f2f9f1d20f13e34faced1f07b5ec1cc, type: 3}
--- !u!4 &4949006519592369119 stripped
Transform:
  m_CorrespondingSourceObject: {fileID: 5914341734106272322, guid: 0f2f9f1d20f13e34faced1f07b5ec1cc, type: 3}
  m_PrefabInstance: {fileID: 1638625603001854365}
  m_PrefabAsset: {fileID: 0}
--- !u!198 &4949006519592369118 stripped
ParticleSystem:
  m_CorrespondingSourceObject: {fileID: 5914341734106272323, guid: 0f2f9f1d20f13e34faced1f07b5ec1cc, type: 3}
  m_PrefabInstance: {fileID: 1638625603001854365}
  m_PrefabAsset: {fileID: 0}
--- !u!108 &4671878212244912400 stripped
Light:
  m_CorrespondingSourceObject: {fileID: 6226306984882704525, guid: 0f2f9f1d20f13e34faced1f07b5ec1cc, type: 3}
  m_PrefabInstance: {fileID: 1638625603001854365}
  m_PrefabAsset: {fileID: 0}
