%YAML 1.1
%TAG !u! tag:unity3d.com,2011:
--- !u!21 &2100000
Material:
  serializedVersion: 6
  m_ObjectHideFlags: 0
  m_CorrespondingSourceObject: {fileID: 0}
  m_PrefabInstance: {fileID: 0}
  m_PrefabAsset: {fileID: 0}
  m_Name: mat_testScene_waterFall
  m_Shader: {fileID: 4800000, guid: 56d51706552e4a944b8b25b0e5b36dd9, type: 3}
  m_ShaderKeywords: _SECONDARYFOAMALWAYSVISIBLE_ON
  m_LightmapFlags: 4
  m_EnableInstancingVariants: 0
  m_DoubleSidedGI: 0
  m_CustomRenderQueue: -1
  stringTagMap: {}
  disabledShaderPasses: []
  m_SavedProperties:
    serializedVersion: 3
    m_TexEnvs:
    - _BumpMap:
        m_Texture: {fileID: 0}
        m_Scale: {x: 1, y: 1}
        m_Offset: {x: 0, y: 0}
    - _DetailAlbedoMap:
        m_Texture: {fileID: 0}
        m_Scale: {x: 1, y: 1}
        m_Offset: {x: 0, y: 0}
    - _DetailMask:
        m_Texture: {fileID: 0}
        m_Scale: {x: 1, y: 1}
        m_Offset: {x: 0, y: 0}
    - _DetailNormalMap:
        m_Texture: {fileID: 0}
        m_Scale: {x: 1, y: 1}
        m_Offset: {x: 0, y: 0}
    - _DistortionTexture:
        m_Texture: {fileID: 2800000, guid: a67d2228caf588945b19a42fbd3c3967, type: 3}
        m_Scale: {x: 1, y: 1}
        m_Offset: {x: 0, y: 0}
    - _EmissionMap:
        m_Texture: {fileID: 0}
        m_Scale: {x: 1, y: 1}
        m_Offset: {x: 0, y: 0}
    - _FoamTexture:
        m_Texture: {fileID: 2800000, guid: a24ddeee41b659a42b3e031e47a80ae2, type: 3}
        m_Scale: {x: 1, y: 1}
        m_Offset: {x: 0, y: 0}
    - _MainTex:
        m_Texture: {fileID: 0}
        m_Scale: {x: 1, y: 1}
        m_Offset: {x: 0, y: 0}
    - _MetallicGlossMap:
        m_Texture: {fileID: 0}
        m_Scale: {x: 1, y: 1}
        m_Offset: {x: 0, y: 0}
    - _NM:
        m_Texture: {fileID: 2800000, guid: 0c4f6b829fac2c748adb09bd48392cc5, type: 3}
        m_Scale: {x: 0.5, y: 0.5}
        m_Offset: {x: 0, y: 0}
    - _OcclusionMap:
        m_Texture: {fileID: 0}
        m_Scale: {x: 1, y: 1}
        m_Offset: {x: 0, y: 0}
    - _ParallaxMap:
        m_Texture: {fileID: 0}
        m_Scale: {x: 1, y: 1}
        m_Offset: {x: 0, y: 0}
    - _ReflectionTex:
        m_Texture: {fileID: 0}
        m_Scale: {x: 1, y: 1}
        m_Offset: {x: 0, y: 0}
    - _TEX:
        m_Texture: {fileID: 2800000, guid: 9212f531d36922840a60320c6654129c, type: 3}
        m_Scale: {x: 0.25, y: 0.25}
        m_Offset: {x: 0, y: 0}
    - _TEX1:
        m_Texture: {fileID: 2800000, guid: 7e519ae359f8e83479c2124fc751037d, type: 3}
        m_Scale: {x: 0.2, y: 0.5}
        m_Offset: {x: 0, y: 0}
    - _TEX2:
        m_Texture: {fileID: 2800000, guid: 314c3bc2841ce354e9c8cb8579fe3036, type: 3}
        m_Scale: {x: 1.5, y: 0.35}
        m_Offset: {x: 0, y: 0}
    - _TEX3:
        m_Texture: {fileID: 2800000, guid: cceee303018ecc343866e2db15d9b39b, type: 3}
        m_Scale: {x: 1, y: 1}
        m_Offset: {x: 0, y: 0}
    - _WaterTexture:
        m_Texture: {fileID: 2800000, guid: 0af227fb6078e4f45a4ed1ff20c180c0, type: 3}
        m_Scale: {x: 1, y: 1}
        m_Offset: {x: 0, y: 0}
    m_Floats:
    - _BumpScale: 1
    - _Cutoff: 0.5
    - _DetailNormalMapScale: 1
    - _Dist: 0.03
    - _DstBlend: 0
    - _Edge: 0.682
    - _EdgeSmooth: 0.1
    - _EdgeThick: 0.5
    - _FresnelExp: 10
    - _GlossMapScale: 1
    - _Glossiness: 0.5
    - _GlossyReflections: 1
    - _Gradient1: 1
    - _Gradient2: 2
    - _GradientPosition1: 1.6
    - _GradientPosition2: 2
    - _LightColorIntensity: 0.7759457
    - _MainFoamIntensity: 3.84466
    - _MainFoamOpacity: 0.8737864
    - _MainFoamScale: 40
    - _MainFoamSpeed: 0.1
    - _Metallic: 0
    - _Mode: 0
    - _NM_speedX: 1
    - _NM_speedY: 1
    - _OcclusionStrength: 1
    - _Opacity: 0.7378641
    - _OpacityDepth: 5
    - _Parallax: 0.02
    - _RealTimeReflection: 0
    - _ReflectionsIntensity: 1
    - _RefractionIntensity: 1
    - _Roughness: 0.6357628
    - _SecondaryFoamAlwaysVisible: 0
    - _SecondaryFoamIntensity: 2.330097
    - _SecondaryFoamOpacity: 0.6310679
    - _SecondaryFoamScale: 40
    - _SmoothnessTextureChannel: 0
    - _SpecularHighlights: 1
    - _SpecularIntensity: 1
    - _SrcBlend: 1
    - _TEX1_speedX: 0.25
    - _TEX1_speedY: 3
    - _TEX2_speedX: 4
    - _TEX2_speedY: 15
    - _TurbulenceDistortionIntesity: 0.8155341
    - _TurbulenceScale: 10
    - _UVSec: 0
    - _VertexOffset: 0
    - _WaveDistortionIntensity: 0.592233
    - _WavesAmplitude: 4.980582
    - _WavesDirection: 0
    - _WavesIntensity: 2
    - _WavesSpeed: 1
    - _ZWrite: 1
    m_Colors:
    - _Color: {r: 1, g: 1, b: 1, a: 1}
    - _Color0: {r: 0.18771628, g: 0.9117647, b: 0.6421192, a: 1}
    - _Color1: {r: 0.18771628, g: 0.6421192, b: 0.9117647, a: 1}
    - _Color2: {r: 0.17128026, g: 0.23841417, b: 0.48529404, a: 1}
    - _DepthGradient1: {r: 0.10980242, g: 0.5960785, b: 0.6196079, a: 1}
    - _DepthGradient2: {r: 0.058822423, g: 0.19607699, b: 0.46274477, a: 1}
    - _DepthGradient3: {r: 0, g: 0.062498897, b: 0.24999851, a: 1}
    - _EdgeColor: {r: 1, g: 1, b: 1, a: 1}
    - _Emission: {r: 0, g: 0, b: 0, a: 1}
    - _EmissionColor: {r: 0, g: 0, b: 0, a: 1}
    - _FoamColor: {r: 0.854902, g: 0.9921569, b: 1, a: 1}
    - _FresnelColor: {r: 0.57647055, g: 0.6980392, b: 0.8000001, a: 1}
    - _NM_Vec: {r: 1, g: 1, b: 0.5, a: 0.5}
    - _TEX1_Vec: {r: 1, g: 1, b: 1, a: 1}
    - _TEX2_Vec: {r: 1, g: 1, b: 1, a: 1}
    - _colFoam: {r: 1, g: 1, b: 1, a: 1}
    - _colShade: {r: 0.10323961, g: 0.47022903, b: 0.754717, a: 1}
    - _colWater: {r: 0.10196078, g: 0.6080343, b: 1, a: 1}
  m_BuildTextureStacks: []
